…
``` r
weather_2.2_tidy_long <- weather_2.2 |> 
  pivot_longer(cols = -c(date, station, item), names_to = "hour", values_to = "value" )
 
weather_2.2_tidy_long |> 
  mutate(date = ymd(date), hour = as.numeric(hour), hour= sprintf("%02d:00",hour %% 24), value = ifelse(value == "NR", "0", value))
```

    Warning: There was 1 warning in `mutate()`.
    ℹ In argument: `hour = as.numeric(hour)`.
    Caused by warning:
    ! NAs introduced by coercion

    # A tibble: 131,040 × 5
       date       station item     hour  value
       <date>     <chr>   <chr>    <chr> <chr>
     1 2015-01-01 Cailiao AMB_TEMP NA:00 16   
     2 2015-01-01 Cailiao AMB_TEMP NA:00 16   
     3 2015-01-01 Cailiao AMB_TEMP NA:00 15   
     4 2015-01-01 Cailiao AMB_TEMP NA:00 15   
     5 2015-01-01 Cailiao AMB_TEMP NA:00 15   
     6 2015-01-01 Cailiao AMB_TEMP NA:00 14   
     7 2015-01-01 Cailiao AMB_TEMP NA:00 14   
     8 2015-01-01 Cailiao AMB_TEMP NA:00 14   
     9 2015-01-01 Cailiao AMB_TEMP NA:00 14   
    10 2015-01-01 Cailiao AMB_TEMP NA:00 15   
    # ℹ 131,030 more rows
…
